run.out
Starting Test Bench Script
Cleaning project
Compiling modules
Running Test Bench
proc_top.vhd:113:9:@0ms:(report note): Reset Process - rst: 0, run_mode: 0, reset active: 0
proc_top.vhd:145:10:@0ms:(report note): Run Mode Clk process - stage: 0
proc_top.vhd:50:9:@0ms:(report note): Registers - PC: [0000], MAR: [0000], IR: [00000000]
proc_top.vhd:205:9:@0ms:(report note): Manual_Toggle_Process
proc_top.vhd:215:9:@0ms:(report note): Run Toggle
proc_top.vhd:226:9:@0ms:(report note): mem_toggle Process, run_mode: 0
proc_top.vhd:205:9:@0ms:(report note): Manual_Toggle_Process
proc_top.vhd:207:13:@0ms:(report note): Manual Toggle Process - setting run mode to 0
proc_top.vhd:145:10:@50ns:(report note): Run Mode Clk process - stage: 0
proc_top.vhd:50:9:@50ns:(report note): Registers - PC: [0000], MAR: [0000], IR: [00000000]
proc_top.vhd:113:9:@50ns:(report note): Reset Process - rst: 0, run_mode: 0, reset active: 0
proc_top_tb.vhd:60:13:@100ns:(report note): Loading Memory Contents
proc_top.vhd:145:10:@100ns:(report note): Run Mode Clk process - stage: 0
proc_top.vhd:50:9:@100ns:(report note): Registers - PC: [0000], MAR: [0000], IR: [00000000]
proc_top.vhd:113:9:@100ns:(report note): Reset Process - rst: 0, run_mode: 0, reset active: 0
proc_top.vhd:226:9:@130ns:(report note): mem_toggle Process, run_mode: 0
proc_top.vhd:228:13:@130ns:(report note): Handling Mem Toggle
proc_top.vhd:233:17:@130ns:(report note): Writing Data 00001001 to Memory [0000]
proc_top.vhd:226:9:@140ns:(report note): mem_toggle Process, run_mode: 0
proc_top.vhd:145:10:@150ns:(report note): Run Mode Clk process - stage: 0
proc_top.vhd:50:9:@150ns:(report note): Registers - PC: [0000], MAR: [0000], IR: [00000000]
proc_top.vhd:113:9:@150ns:(report note): Reset Process - rst: 0, run_mode: 0, reset active: 0
proc_top.vhd:226:9:@170ns:(report note): mem_toggle Process, run_mode: 0
proc_top.vhd:228:13:@170ns:(report note): Handling Mem Toggle
proc_top.vhd:233:17:@170ns:(report note): Writing Data 00011010 to Memory [0001]
proc_top.vhd:226:9:@180ns:(report note): mem_toggle Process, run_mode: 0
proc_top.vhd:145:10:@200ns:(report note): Run Mode Clk process - stage: 0
proc_top.vhd:50:9:@200ns:(report note): Registers - PC: [0000], MAR: [0000], IR: [00000000]
proc_top.vhd:113:9:@200ns:(report note): Reset Process - rst: 0, run_mode: 0, reset active: 0
proc_top.vhd:226:9:@210ns:(report note): mem_toggle Process, run_mode: 0
proc_top.vhd:228:13:@210ns:(report note): Handling Mem Toggle
proc_top.vhd:233:17:@210ns:(report note): Writing Data 00011011 to Memory [0010]
proc_top.vhd:226:9:@220ns:(report note): mem_toggle Process, run_mode: 0
proc_top.vhd:145:10:@250ns:(report note): Run Mode Clk process - stage: 0
proc_top.vhd:50:9:@250ns:(report note): Registers - PC: [0000], MAR: [0000], IR: [00000000]
proc_top.vhd:113:9:@250ns:(report note): Reset Process - rst: 0, run_mode: 0, reset active: 0
proc_top.vhd:226:9:@250ns:(report note): mem_toggle Process, run_mode: 0
proc_top.vhd:228:13:@250ns:(report note): Handling Mem Toggle
proc_top.vhd:233:17:@250ns:(report note): Writing Data 00101100 to Memory [0011]
proc_top.vhd:226:9:@260ns:(report note): mem_toggle Process, run_mode: 0
proc_top.vhd:226:9:@290ns:(report note): mem_toggle Process, run_mode: 0
proc_top.vhd:228:13:@290ns:(report note): Handling Mem Toggle
proc_top.vhd:233:17:@290ns:(report note): Writing Data 11100000 to Memory [0100]
proc_top.vhd:145:10:@300ns:(report note): Run Mode Clk process - stage: 0
proc_top.vhd:50:9:@300ns:(report note): Registers - PC: [0000], MAR: [0000], IR: [00000000]
proc_top.vhd:113:9:@300ns:(report note): Reset Process - rst: 0, run_mode: 0, reset active: 0
proc_top.vhd:226:9:@300ns:(report note): mem_toggle Process, run_mode: 0
proc_top.vhd:226:9:@330ns:(report note): mem_toggle Process, run_mode: 0
proc_top.vhd:228:13:@330ns:(report note): Handling Mem Toggle
proc_top.vhd:233:17:@330ns:(report note): Writing Data 11110000 to Memory [0101]
proc_top.vhd:226:9:@340ns:(report note): mem_toggle Process, run_mode: 0
proc_top.vhd:145:10:@350ns:(report note): Run Mode Clk process - stage: 0
proc_top.vhd:50:9:@350ns:(report note): Registers - PC: [0000], MAR: [0000], IR: [00000000]
proc_top.vhd:113:9:@350ns:(report note): Reset Process - rst: 0, run_mode: 0, reset active: 0
proc_top.vhd:226:9:@370ns:(report note): mem_toggle Process, run_mode: 0
proc_top.vhd:228:13:@370ns:(report note): Handling Mem Toggle
proc_top.vhd:233:17:@370ns:(report note): Writing Data 10101010 to Memory [0110]
proc_top.vhd:226:9:@380ns:(report note): mem_toggle Process, run_mode: 0
proc_top.vhd:145:10:@400ns:(report note): Run Mode Clk process - stage: 0
proc_top.vhd:50:9:@400ns:(report note): Registers - PC: [0000], MAR: [0000], IR: [00000000]
proc_top.vhd:113:9:@400ns:(report note): Reset Process - rst: 0, run_mode: 0, reset active: 0
proc_top.vhd:226:9:@410ns:(report note): mem_toggle Process, run_mode: 0
proc_top.vhd:228:13:@410ns:(report note): Handling Mem Toggle
proc_top.vhd:233:17:@410ns:(report note): Writing Data 10101010 to Memory [0111]
proc_top.vhd:226:9:@420ns:(report note): mem_toggle Process, run_mode: 0
proc_top.vhd:145:10:@450ns:(report note): Run Mode Clk process - stage: 0
proc_top.vhd:50:9:@450ns:(report note): Registers - PC: [0000], MAR: [0000], IR: [00000000]
proc_top.vhd:113:9:@450ns:(report note): Reset Process - rst: 0, run_mode: 0, reset active: 0
proc_top.vhd:226:9:@450ns:(report note): mem_toggle Process, run_mode: 0
proc_top.vhd:228:13:@450ns:(report note): Handling Mem Toggle
proc_top.vhd:233:17:@450ns:(report note): Writing Data 10101010 to Memory [1000]
proc_top.vhd:226:9:@460ns:(report note): mem_toggle Process, run_mode: 0
proc_top.vhd:226:9:@490ns:(report note): mem_toggle Process, run_mode: 0
proc_top.vhd:228:13:@490ns:(report note): Handling Mem Toggle
proc_top.vhd:233:17:@490ns:(report note): Writing Data 00010000 to Memory [1001]
proc_top.vhd:145:10:@500ns:(report note): Run Mode Clk process - stage: 0
proc_top.vhd:50:9:@500ns:(report note): Registers - PC: [0000], MAR: [0000], IR: [00000000]
proc_top.vhd:113:9:@500ns:(report note): Reset Process - rst: 0, run_mode: 0, reset active: 0
proc_top.vhd:226:9:@500ns:(report note): mem_toggle Process, run_mode: 0
proc_top.vhd:226:9:@530ns:(report note): mem_toggle Process, run_mode: 0
proc_top.vhd:228:13:@530ns:(report note): Handling Mem Toggle
proc_top.vhd:233:17:@530ns:(report note): Writing Data 00010100 to Memory [1010]
proc_top.vhd:226:9:@540ns:(report note): mem_toggle Process, run_mode: 0
proc_top.vhd:145:10:@550ns:(report note): Run Mode Clk process - stage: 0
proc_top.vhd:50:9:@550ns:(report note): Registers - PC: [0000], MAR: [0000], IR: [00000000]
proc_top.vhd:113:9:@550ns:(report note): Reset Process - rst: 0, run_mode: 0, reset active: 0
proc_top.vhd:226:9:@570ns:(report note): mem_toggle Process, run_mode: 0
proc_top.vhd:228:13:@570ns:(report note): Handling Mem Toggle
proc_top.vhd:233:17:@570ns:(report note): Writing Data 00011000 to Memory [1011]
proc_top.vhd:226:9:@580ns:(report note): mem_toggle Process, run_mode: 0
proc_top.vhd:145:10:@600ns:(report note): Run Mode Clk process - stage: 0
proc_top.vhd:50:9:@600ns:(report note): Registers - PC: [0000], MAR: [0000], IR: [00000000]
proc_top.vhd:113:9:@600ns:(report note): Reset Process - rst: 0, run_mode: 0, reset active: 0
proc_top.vhd:226:9:@610ns:(report note): mem_toggle Process, run_mode: 0
proc_top.vhd:228:13:@610ns:(report note): Handling Mem Toggle
proc_top.vhd:233:17:@610ns:(report note): Writing Data 00100000 to Memory [1100]
proc_top.vhd:226:9:@620ns:(report note): mem_toggle Process, run_mode: 0
proc_top.vhd:145:10:@650ns:(report note): Run Mode Clk process - stage: 0
proc_top.vhd:50:9:@650ns:(report note): Registers - PC: [0000], MAR: [0000], IR: [00000000]
proc_top.vhd:113:9:@650ns:(report note): Reset Process - rst: 0, run_mode: 0, reset active: 0
proc_top.vhd:226:9:@650ns:(report note): mem_toggle Process, run_mode: 0
proc_top.vhd:228:13:@650ns:(report note): Handling Mem Toggle
proc_top.vhd:233:17:@650ns:(report note): Writing Data 10101010 to Memory [1101]
proc_top.vhd:226:9:@660ns:(report note): mem_toggle Process, run_mode: 0
proc_top.vhd:226:9:@690ns:(report note): mem_toggle Process, run_mode: 0
proc_top.vhd:228:13:@690ns:(report note): Handling Mem Toggle
proc_top.vhd:233:17:@690ns:(report note): Writing Data 10101010 to Memory [1110]
proc_top.vhd:145:10:@700ns:(report note): Run Mode Clk process - stage: 0
proc_top.vhd:50:9:@700ns:(report note): Registers - PC: [0000], MAR: [0000], IR: [00000000]
proc_top.vhd:113:9:@700ns:(report note): Reset Process - rst: 0, run_mode: 0, reset active: 0
proc_top.vhd:226:9:@700ns:(report note): mem_toggle Process, run_mode: 0
proc_top.vhd:226:9:@730ns:(report note): mem_toggle Process, run_mode: 0
proc_top.vhd:228:13:@730ns:(report note): Handling Mem Toggle
proc_top.vhd:233:17:@730ns:(report note): Writing Data 10101010 to Memory [1111]
proc_top_tb.vhd:116:13:@740ns:(report note): Finsihed Loading Memory
proc_top_tb.vhd:117:13:@740ns:(report note): Resetting
proc_top.vhd:145:10:@740ns:(report note): Run Mode Clk process - stage: 0
proc_top.vhd:50:9:@740ns:(report note): Registers - PC: [0000], MAR: [0000], IR: [00000000]
proc_top.vhd:113:9:@740ns:(report note): Reset Process - rst: 1, run_mode: 0, reset active: 0
proc_top.vhd:145:10:@750ns:(report note): Run Mode Clk process - stage: 0
proc_top.vhd:50:9:@750ns:(report note): Registers - PC: [0000], MAR: [0000], IR: [00000000]
proc_top.vhd:113:9:@750ns:(report note): Reset Process - rst: 1, run_mode: 0, reset active: 0
proc_top.vhd:118:17:@750ns:(report note): Clearing Registers
proc_top.vhd:145:10:@800ns:(report note): Run Mode Clk process - stage: 0
proc_top.vhd:50:9:@800ns:(report note): Registers - PC: [0000], MAR: [0000], IR: [00000000]
proc_top.vhd:113:9:@800ns:(report note): Reset Process - rst: 1, run_mode: 0, reset active: 1
proc_top.vhd:145:10:@840ns:(report note): Run Mode Clk process - stage: 0
proc_top.vhd:50:9:@840ns:(report note): Registers - PC: [0000], MAR: [0000], IR: [00000000]
proc_top.vhd:113:9:@840ns:(report note): Reset Process - rst: 0, run_mode: 0, reset active: 1
proc_top.vhd:145:10:@850ns:(report note): Run Mode Clk process - stage: 0
proc_top.vhd:50:9:@850ns:(report note): Registers - PC: [0000], MAR: [0000], IR: [00000000]
proc_top.vhd:113:9:@850ns:(report note): Reset Process - rst: 0, run_mode: 0, reset active: 1
proc_top.vhd:131:17:@850ns:(report note): After Reset setting run mode to 1 - PC: 0000, IR: 00000000, MAR: 0000
proc_top.vhd:145:10:@900ns:(report note): Run Mode Clk process - stage: 0
proc_top.vhd:50:9:@900ns:(report note): Registers - PC: [0000], MAR: [0000], IR: [00000000]
proc_top.vhd:113:9:@900ns:(report note): Reset Process - rst: 0, run_mode: 0, reset active: 0
proc_top.vhd:215:9:@940ns:(report note): Run Toggle
proc_top.vhd:217:13:@940ns:(report note): Run Toggle Process - setting run mode to 1
proc_top.vhd:93:13:@940ns:(report note): 0:  09  LDA 9H
proc_top.vhd:93:13:@940ns:(report note): 1:  1A  ADD AH
proc_top.vhd:93:13:@940ns:(report note): 2:  1B  ADD BH
proc_top.vhd:93:13:@940ns:(report note): 3:  2C  SUB CH
proc_top.vhd:93:13:@940ns:(report note): 4:  E0  OUT 
proc_top.vhd:93:13:@940ns:(report note): 5:  F0  HLT 
proc_top.vhd:93:13:@940ns:(report note): 6:  AA  ??? 
proc_top.vhd:93:13:@940ns:(report note): 7:  AA  ??? 
proc_top.vhd:93:13:@940ns:(report note): 8:  AA  ??? 
proc_top.vhd:93:13:@940ns:(report note): 9:  10  ADD 0H
proc_top.vhd:93:13:@940ns:(report note): A:  14  ADD 4H
proc_top.vhd:93:13:@940ns:(report note): B:  18  ADD 8H
proc_top.vhd:93:13:@940ns:(report note): C:  20  SUB 0H
proc_top.vhd:93:13:@940ns:(report note): D:  AA  ??? 
proc_top.vhd:93:13:@940ns:(report note): E:  AA  ??? 
proc_top.vhd:93:13:@940ns:(report note): F:  AA  ??? 
proc_top.vhd:226:9:@940ns:(report note): mem_toggle Process, run_mode: 1
proc_top.vhd:145:10:@940ns:(report note): Run Mode Clk process - stage: 0
proc_top.vhd:50:9:@940ns:(report note): Registers - PC: [0000], MAR: [0000], IR: [00000000]
proc_top.vhd:145:10:@950ns:(report note): Run Mode Clk process - stage: 0
proc_top.vhd:50:9:@950ns:(report note): Registers - PC: [0000], MAR: [0000], IR: [00000000]
proc_top.vhd:159:13:@950ns:(report note): Processing with PC: 0000, temp_PC: 0000, Stage: 0, IR: 00000000, MAR: 0000, OPCODE: 0000, OPERAND: 0000, MEM[0]: 00001001, MEM[1]: 00011010
proc_top.vhd:173:33:@950ns:(report note): Stage 1 - Assigning PC to MAR
proc_top.vhd:175:33:@950ns:(report note): MAR after set from PC during stage 1. 0000
proc_top.vhd:113:9:@950ns:(report note): Reset Process - rst: 0, run_mode: 1, reset active: 0
proc_top.vhd:145:10:@1us:(report note): Run Mode Clk process - stage: 1
proc_top.vhd:50:9:@1us:(report note): Registers - PC: [0000], MAR: [0000], IR: [00000000]
proc_top.vhd:113:9:@1us:(report note): Reset Process - rst: 0, run_mode: 1, reset active: 0
proc_top.vhd:145:10:@1050ns:(report note): Run Mode Clk process - stage: 1
proc_top.vhd:50:9:@1050ns:(report note): Registers - PC: [0000], MAR: [0000], IR: [00000000]
proc_top.vhd:159:13:@1050ns:(report note): Processing with PC: 0000, temp_PC: 0000, Stage: 1, IR: 00000000, MAR: 0000, OPCODE: 0000, OPERAND: 0000, MEM[0]: 00001001, MEM[1]: 00011010
proc_top.vhd:178:33:@1050ns:(report note): Stage 2 - Incrementing PC - current value of PC: 0000
proc_top.vhd:181:33:@1050ns:(report note): PC after increment during stage 2: 0001, 0000
proc_top.vhd:113:9:@1050ns:(report note): Reset Process - rst: 0, run_mode: 1, reset active: 0
proc_top.vhd:145:10:@1100ns:(report note): Run Mode Clk process - stage: 2
proc_top.vhd:50:9:@1100ns:(report note): Registers - PC: [0001], MAR: [0000], IR: [00000000]
proc_top.vhd:113:9:@1100ns:(report note): Reset Process - rst: 0, run_mode: 1, reset active: 0
proc_top.vhd:145:10:@1150ns:(report note): Run Mode Clk process - stage: 2
proc_top.vhd:50:9:@1150ns:(report note): Registers - PC: [0001], MAR: [0000], IR: [00000000]
proc_top.vhd:159:13:@1150ns:(report note): Processing with PC: 0001, temp_PC: 0001, Stage: 2, IR: 00000000, MAR: 0000, OPCODE: 0000, OPERAND: 0000, MEM[0]: 00001001, MEM[1]: 00011010
proc_top.vhd:184:33:@1150ns:(report note): Stage 3 - loading IR from memory - MAR: 0000, MEM(0): 00001001
proc_top.vhd:189:33:@1150ns:(report note): IR after loading from memory during stage 3: temp_IR: 00001001, opcode=0000, operand=1001
proc_top.vhd:113:9:@1150ns:(report note): Reset Process - rst: 0, run_mode: 1, reset active: 0
proc_top.vhd:145:10:@1200ns:(report note): Run Mode Clk process - stage: 3
proc_top.vhd:50:9:@1200ns:(report note): Registers - PC: [0001], MAR: [0000], IR: [00001001]
proc_top.vhd:113:9:@1200ns:(report note): Reset Process - rst: 0, run_mode: 1, reset active: 0
proc_top.vhd:145:10:@1250ns:(report note): Run Mode Clk process - stage: 3
proc_top.vhd:50:9:@1250ns:(report note): Registers - PC: [0001], MAR: [0000], IR: [00001001]
proc_top.vhd:159:13:@1250ns:(report note): Processing with PC: 0001, temp_PC: 0001, Stage: 3, IR: 00001001, MAR: 0000, OPCODE: 0000, OPERAND: 1001, MEM[0]: 00001001, MEM[1]: 00011010
proc_top.vhd:113:9:@1250ns:(report note): Reset Process - rst: 0, run_mode: 1, reset active: 0
proc_top.vhd:145:10:@1300ns:(report note): Run Mode Clk process - stage: 4
proc_top.vhd:50:9:@1300ns:(report note): Registers - PC: [0001], MAR: [0000], IR: [00001001]
proc_top.vhd:113:9:@1300ns:(report note): Reset Process - rst: 0, run_mode: 1, reset active: 0
proc_top.vhd:145:10:@1350ns:(report note): Run Mode Clk process - stage: 4
proc_top.vhd:50:9:@1350ns:(report note): Registers - PC: [0001], MAR: [0000], IR: [00001001]
proc_top.vhd:159:13:@1350ns:(report note): Processing with PC: 0001, temp_PC: 0001, Stage: 4, IR: 00001001, MAR: 0000, OPCODE: 0000, OPERAND: 1001, MEM[0]: 00001001, MEM[1]: 00011010
proc_top.vhd:113:9:@1350ns:(report note): Reset Process - rst: 0, run_mode: 1, reset active: 0
proc_top.vhd:145:10:@1400ns:(report note): Run Mode Clk process - stage: 5
proc_top.vhd:50:9:@1400ns:(report note): Registers - PC: [0001], MAR: [0000], IR: [00001001]
proc_top.vhd:113:9:@1400ns:(report note): Reset Process - rst: 0, run_mode: 1, reset active: 0
proc_top.vhd:145:10:@1450ns:(report note): Run Mode Clk process - stage: 5
proc_top.vhd:50:9:@1450ns:(report note): Registers - PC: [0001], MAR: [0000], IR: [00001001]
proc_top.vhd:159:13:@1450ns:(report note): Processing with PC: 0001, temp_PC: 0001, Stage: 5, IR: 00001001, MAR: 0000, OPCODE: 0000, OPERAND: 1001, MEM[0]: 00001001, MEM[1]: 00011010
proc_top.vhd:113:9:@1450ns:(report note): Reset Process - rst: 0, run_mode: 1, reset active: 0
proc_top.vhd:145:10:@1500ns:(report note): Run Mode Clk process - stage: 0
proc_top.vhd:50:9:@1500ns:(report note): Registers - PC: [0001], MAR: [0000], IR: [00001001]
proc_top.vhd:113:9:@1500ns:(report note): Reset Process - rst: 0, run_mode: 1, reset active: 0
proc_top.vhd:145:10:@1550ns:(report note): Run Mode Clk process - stage: 0
proc_top.vhd:50:9:@1550ns:(report note): Registers - PC: [0001], MAR: [0000], IR: [00001001]
proc_top.vhd:159:13:@1550ns:(report note): Processing with PC: 0001, temp_PC: 0001, Stage: 0, IR: 00001001, MAR: 0000, OPCODE: 0000, OPERAND: 1001, MEM[0]: 00001001, MEM[1]: 00011010
proc_top.vhd:173:33:@1550ns:(report note): Stage 1 - Assigning PC to MAR
proc_top.vhd:175:33:@1550ns:(report note): MAR after set from PC during stage 1. 0000
proc_top.vhd:113:9:@1550ns:(report note): Reset Process - rst: 0, run_mode: 1, reset active: 0
proc_top.vhd:145:10:@1600ns:(report note): Run Mode Clk process - stage: 1
proc_top.vhd:50:9:@1600ns:(report note): Registers - PC: [0001], MAR: [0001], IR: [00001001]
proc_top.vhd:113:9:@1600ns:(report note): Reset Process - rst: 0, run_mode: 1, reset active: 0
proc_top.vhd:145:10:@1650ns:(report note): Run Mode Clk process - stage: 1
proc_top.vhd:50:9:@1650ns:(report note): Registers - PC: [0001], MAR: [0001], IR: [00001001]
proc_top.vhd:159:13:@1650ns:(report note): Processing with PC: 0001, temp_PC: 0001, Stage: 1, IR: 00001001, MAR: 0001, OPCODE: 0000, OPERAND: 1001, MEM[0]: 00001001, MEM[1]: 00011010
proc_top.vhd:178:33:@1650ns:(report note): Stage 2 - Incrementing PC - current value of PC: 0001
proc_top.vhd:181:33:@1650ns:(report note): PC after increment during stage 2: 0010, 0001
proc_top.vhd:113:9:@1650ns:(report note): Reset Process - rst: 0, run_mode: 1, reset active: 0
proc_top.vhd:145:10:@1700ns:(report note): Run Mode Clk process - stage: 2
proc_top.vhd:50:9:@1700ns:(report note): Registers - PC: [0010], MAR: [0001], IR: [00001001]
proc_top.vhd:113:9:@1700ns:(report note): Reset Process - rst: 0, run_mode: 1, reset active: 0
proc_top.vhd:145:10:@1750ns:(report note): Run Mode Clk process - stage: 2
proc_top.vhd:50:9:@1750ns:(report note): Registers - PC: [0010], MAR: [0001], IR: [00001001]
proc_top.vhd:159:13:@1750ns:(report note): Processing with PC: 0010, temp_PC: 0010, Stage: 2, IR: 00001001, MAR: 0001, OPCODE: 0000, OPERAND: 1001, MEM[0]: 00001001, MEM[1]: 00011010
proc_top.vhd:184:33:@1750ns:(report note): Stage 3 - loading IR from memory - MAR: 0001, MEM(0): 00011010
proc_top.vhd:189:33:@1750ns:(report note): IR after loading from memory during stage 3: temp_IR: 00011010, opcode=0001, operand=1010
proc_top.vhd:113:9:@1750ns:(report note): Reset Process - rst: 0, run_mode: 1, reset active: 0
proc_top.vhd:145:10:@1800ns:(report note): Run Mode Clk process - stage: 3
proc_top.vhd:50:9:@1800ns:(report note): Registers - PC: [0010], MAR: [0001], IR: [00011010]
proc_top.vhd:113:9:@1800ns:(report note): Reset Process - rst: 0, run_mode: 1, reset active: 0
proc_top.vhd:145:10:@1850ns:(report note): Run Mode Clk process - stage: 3
proc_top.vhd:50:9:@1850ns:(report note): Registers - PC: [0010], MAR: [0001], IR: [00011010]
proc_top.vhd:159:13:@1850ns:(report note): Processing with PC: 0010, temp_PC: 0010, Stage: 3, IR: 00011010, MAR: 0001, OPCODE: 0001, OPERAND: 1010, MEM[0]: 00001001, MEM[1]: 00011010
proc_top.vhd:113:9:@1850ns:(report note): Reset Process - rst: 0, run_mode: 1, reset active: 0
proc_top.vhd:145:10:@1900ns:(report note): Run Mode Clk process - stage: 4
proc_top.vhd:50:9:@1900ns:(report note): Registers - PC: [0010], MAR: [0001], IR: [00011010]
proc_top.vhd:113:9:@1900ns:(report note): Reset Process - rst: 0, run_mode: 1, reset active: 0
proc_top.vhd:145:10:@1950ns:(report note): Run Mode Clk process - stage: 4
proc_top.vhd:50:9:@1950ns:(report note): Registers - PC: [0010], MAR: [0001], IR: [00011010]
proc_top.vhd:159:13:@1950ns:(report note): Processing with PC: 0010, temp_PC: 0010, Stage: 4, IR: 00011010, MAR: 0001, OPCODE: 0001, OPERAND: 1010, MEM[0]: 00001001, MEM[1]: 00011010
proc_top.vhd:113:9:@1950ns:(report note): Reset Process - rst: 0, run_mode: 1, reset active: 0
proc_top.vhd:145:10:@2us:(report note): Run Mode Clk process - stage: 5
proc_top.vhd:50:9:@2us:(report note): Registers - PC: [0010], MAR: [0001], IR: [00011010]
proc_top.vhd:113:9:@2us:(report note): Reset Process - rst: 0, run_mode: 1, reset active: 0
proc_top.vhd:145:10:@2050ns:(report note): Run Mode Clk process - stage: 5
proc_top.vhd:50:9:@2050ns:(report note): Registers - PC: [0010], MAR: [0001], IR: [00011010]
proc_top.vhd:159:13:@2050ns:(report note): Processing with PC: 0010, temp_PC: 0010, Stage: 5, IR: 00011010, MAR: 0001, OPCODE: 0001, OPERAND: 1010, MEM[0]: 00001001, MEM[1]: 00011010
proc_top.vhd:113:9:@2050ns:(report note): Reset Process - rst: 0, run_mode: 1, reset active: 0
proc_top.vhd:145:10:@2100ns:(report note): Run Mode Clk process - stage: 0
proc_top.vhd:50:9:@2100ns:(report note): Registers - PC: [0010], MAR: [0001], IR: [00011010]
proc_top.vhd:113:9:@2100ns:(report note): Reset Process - rst: 0, run_mode: 1, reset active: 0
proc_top.vhd:145:10:@2150ns:(report note): Run Mode Clk process - stage: 0
proc_top.vhd:50:9:@2150ns:(report note): Registers - PC: [0010], MAR: [0001], IR: [00011010]
proc_top.vhd:159:13:@2150ns:(report note): Processing with PC: 0010, temp_PC: 0010, Stage: 0, IR: 00011010, MAR: 0001, OPCODE: 0001, OPERAND: 1010, MEM[0]: 00001001, MEM[1]: 00011010
proc_top.vhd:173:33:@2150ns:(report note): Stage 1 - Assigning PC to MAR
proc_top.vhd:175:33:@2150ns:(report note): MAR after set from PC during stage 1. 0001
proc_top.vhd:113:9:@2150ns:(report note): Reset Process - rst: 0, run_mode: 1, reset active: 0
proc_top.vhd:145:10:@2200ns:(report note): Run Mode Clk process - stage: 1
proc_top.vhd:50:9:@2200ns:(report note): Registers - PC: [0010], MAR: [0010], IR: [00011010]
proc_top.vhd:113:9:@2200ns:(report note): Reset Process - rst: 0, run_mode: 1, reset active: 0
proc_top.vhd:145:10:@2250ns:(report note): Run Mode Clk process - stage: 1
proc_top.vhd:50:9:@2250ns:(report note): Registers - PC: [0010], MAR: [0010], IR: [00011010]
proc_top.vhd:159:13:@2250ns:(report note): Processing with PC: 0010, temp_PC: 0010, Stage: 1, IR: 00011010, MAR: 0010, OPCODE: 0001, OPERAND: 1010, MEM[0]: 00001001, MEM[1]: 00011010
proc_top.vhd:178:33:@2250ns:(report note): Stage 2 - Incrementing PC - current value of PC: 0010
proc_top.vhd:181:33:@2250ns:(report note): PC after increment during stage 2: 0011, 0010
proc_top.vhd:113:9:@2250ns:(report note): Reset Process - rst: 0, run_mode: 1, reset active: 0
proc_top.vhd:145:10:@2300ns:(report note): Run Mode Clk process - stage: 2
proc_top.vhd:50:9:@2300ns:(report note): Registers - PC: [0011], MAR: [0010], IR: [00011010]
proc_top.vhd:113:9:@2300ns:(report note): Reset Process - rst: 0, run_mode: 1, reset active: 0
proc_top.vhd:145:10:@2350ns:(report note): Run Mode Clk process - stage: 2
proc_top.vhd:50:9:@2350ns:(report note): Registers - PC: [0011], MAR: [0010], IR: [00011010]
proc_top.vhd:159:13:@2350ns:(report note): Processing with PC: 0011, temp_PC: 0011, Stage: 2, IR: 00011010, MAR: 0010, OPCODE: 0001, OPERAND: 1010, MEM[0]: 00001001, MEM[1]: 00011010
proc_top.vhd:184:33:@2350ns:(report note): Stage 3 - loading IR from memory - MAR: 0010, MEM(0): 00011011
proc_top.vhd:189:33:@2350ns:(report note): IR after loading from memory during stage 3: temp_IR: 00011011, opcode=0001, operand=1011
proc_top.vhd:113:9:@2350ns:(report note): Reset Process - rst: 0, run_mode: 1, reset active: 0
proc_top.vhd:145:10:@2400ns:(report note): Run Mode Clk process - stage: 3
proc_top.vhd:50:9:@2400ns:(report note): Registers - PC: [0011], MAR: [0010], IR: [00011011]
proc_top.vhd:113:9:@2400ns:(report note): Reset Process - rst: 0, run_mode: 1, reset active: 0
proc_top.vhd:145:10:@2450ns:(report note): Run Mode Clk process - stage: 3
proc_top.vhd:50:9:@2450ns:(report note): Registers - PC: [0011], MAR: [0010], IR: [00011011]
proc_top.vhd:159:13:@2450ns:(report note): Processing with PC: 0011, temp_PC: 0011, Stage: 3, IR: 00011011, MAR: 0010, OPCODE: 0001, OPERAND: 1011, MEM[0]: 00001001, MEM[1]: 00011010
proc_top.vhd:113:9:@2450ns:(report note): Reset Process - rst: 0, run_mode: 1, reset active: 0
proc_top.vhd:145:10:@2500ns:(report note): Run Mode Clk process - stage: 4
proc_top.vhd:50:9:@2500ns:(report note): Registers - PC: [0011], MAR: [0010], IR: [00011011]
proc_top.vhd:113:9:@2500ns:(report note): Reset Process - rst: 0, run_mode: 1, reset active: 0
proc_top.vhd:145:10:@2550ns:(report note): Run Mode Clk process - stage: 4
proc_top.vhd:50:9:@2550ns:(report note): Registers - PC: [0011], MAR: [0010], IR: [00011011]
proc_top.vhd:159:13:@2550ns:(report note): Processing with PC: 0011, temp_PC: 0011, Stage: 4, IR: 00011011, MAR: 0010, OPCODE: 0001, OPERAND: 1011, MEM[0]: 00001001, MEM[1]: 00011010
proc_top.vhd:113:9:@2550ns:(report note): Reset Process - rst: 0, run_mode: 1, reset active: 0
proc_top.vhd:145:10:@2600ns:(report note): Run Mode Clk process - stage: 5
proc_top.vhd:50:9:@2600ns:(report note): Registers - PC: [0011], MAR: [0010], IR: [00011011]
proc_top.vhd:113:9:@2600ns:(report note): Reset Process - rst: 0, run_mode: 1, reset active: 0
proc_top.vhd:145:10:@2650ns:(report note): Run Mode Clk process - stage: 5
proc_top.vhd:50:9:@2650ns:(report note): Registers - PC: [0011], MAR: [0010], IR: [00011011]
proc_top.vhd:159:13:@2650ns:(report note): Processing with PC: 0011, temp_PC: 0011, Stage: 5, IR: 00011011, MAR: 0010, OPCODE: 0001, OPERAND: 1011, MEM[0]: 00001001, MEM[1]: 00011010
proc_top.vhd:113:9:@2650ns:(report note): Reset Process - rst: 0, run_mode: 1, reset active: 0
proc_top.vhd:145:10:@2700ns:(report note): Run Mode Clk process - stage: 0
proc_top.vhd:50:9:@2700ns:(report note): Registers - PC: [0011], MAR: [0010], IR: [00011011]
proc_top.vhd:113:9:@2700ns:(report note): Reset Process - rst: 0, run_mode: 1, reset active: 0
proc_top.vhd:145:10:@2750ns:(report note): Run Mode Clk process - stage: 0
proc_top.vhd:50:9:@2750ns:(report note): Registers - PC: [0011], MAR: [0010], IR: [00011011]
proc_top.vhd:159:13:@2750ns:(report note): Processing with PC: 0011, temp_PC: 0011, Stage: 0, IR: 00011011, MAR: 0010, OPCODE: 0001, OPERAND: 1011, MEM[0]: 00001001, MEM[1]: 00011010
proc_top.vhd:173:33:@2750ns:(report note): Stage 1 - Assigning PC to MAR
proc_top.vhd:175:33:@2750ns:(report note): MAR after set from PC during stage 1. 0010
proc_top.vhd:113:9:@2750ns:(report note): Reset Process - rst: 0, run_mode: 1, reset active: 0
proc_top.vhd:145:10:@2800ns:(report note): Run Mode Clk process - stage: 1
proc_top.vhd:50:9:@2800ns:(report note): Registers - PC: [0011], MAR: [0011], IR: [00011011]
proc_top.vhd:113:9:@2800ns:(report note): Reset Process - rst: 0, run_mode: 1, reset active: 0
proc_top.vhd:145:10:@2850ns:(report note): Run Mode Clk process - stage: 1
proc_top.vhd:50:9:@2850ns:(report note): Registers - PC: [0011], MAR: [0011], IR: [00011011]
proc_top.vhd:159:13:@2850ns:(report note): Processing with PC: 0011, temp_PC: 0011, Stage: 1, IR: 00011011, MAR: 0011, OPCODE: 0001, OPERAND: 1011, MEM[0]: 00001001, MEM[1]: 00011010
